<?xml version="1.0" encoding="UTF-8"?>
<kml xmlns="http://www.opengis.net/kml/2.2" xmlns:gx="http://www.google.com/kml/ext/2.2" xmlns:kml="http://www.opengis.net/kml/2.2" xmlns:atom="http://www.w3.org/2005/Atom">
<gx:Tour>
	<name>Zoom out KSNA</name>
	<gx:Playlist>
		<gx:FlyTo>
			<LookAt>
				<longitude>-117.867497</longitude>
				<latitude>33.676137</latitude>
				<altitude>0</altitude>
				<heading>0</heading>
				<tilt>0</tilt>
				<range>50000</range>
				<gx:altitudeMode>relativeToSeaFloor</gx:altitudeMode>
				 <gx:horizFov>35</gx:horizFov> 
			</LookAt>
		</gx:FlyTo>
	</gx:Playlist>
</gx:Tour>
</kml>
